…
Ahora cargamos los datos y los agregamos:

``` r
# cargamos los datos
data("puntuaciones") 

puntuaciones <- puntuaciones |> 
    add_count(producto) |> # numero de observaciones de cada producto
    mutate(producto_n = paste0(producto, " (n = ", n, ")")) |>  
    select(producto_n, puntuacion) 

puntuaciones
#> # A tibble: 390 × 2
#>    producto_n              puntuacion
#>    <chr>                        <dbl>
#>  1 Yogur (n = 8)                    5
#>  2 Yogur (n = 8)                    5
#>  3 Yogur (n = 8)                    5
#>  4 Yogur (n = 8)                    6
#>  5 Yogur (n = 8)                    8
#>  6 Yogur (n = 8)                    5
#>  7 Yogur (n = 8)                    9
#>  8 Yogur (n = 8)                    6
#>  9 Salsa de tomate (n = 8)          6
#> 10 Salsa de tomate (n = 8)          7
#> # … with 380 more rows
```
…
